[
  "Москва",
  "Санкт-Петербург",
  "Воронеж",
  "Волгоград",
  "Еатеринбург",
  "Иваново",
  "Иркутск",
  "Казань",
  "Краснодар",
  "Красноярск",
  "Магнитогорск",
  "Нижнийновгород",
  "Новосибирск",
  "Омск",
  "Оренбург",
  "Пенза",
  "Ростов-на-Дону",
  "Самара",
  "Саратов",
  "Сочи",
  "Сургут",
  "Тольяти",
  "Томск",
  "Тюмень",
  "Уфа",
  "Челябинск",
  "Череповец"
]
