[
  {
    "title": "Статьи",
    "text": "Как подобрать <br>бойлер?",
    "img": {
      "src": "stuff/paper.svg",
      "w": 45,
      "h": 50
    },
    "url": "#"
  },
  {
    "title": "Калькуляторы",
    "text": "Как рассчитать требуемую мощность котла?",
    "img": {
      "src": "stuff/calc.svg",
      "w": 45,
      "h": 50
    },
    "url": "calcs.html"
  },
  {
    "title": "Видео",
    "text": "Как увидеть Эндимарт изнутри?",
    "img": {
      "src": "stuff/camera.svg",
      "w": 60,
      "h": 45
    },
    "url": "#"
  }
]
