<?xml version="1.0" encoding="UTF-8"?>
<svg xmlns="http://www.w3.org/2000/svg" xmlns:xlink="http://www.w3.org/1999/xlink" width="48pt" height="47pt" viewBox="0 0 48 47" version="1.1">
<g id="surface1">
<path style=" stroke:none;fill-rule:nonzero;fill:rgb(43.921569%,43.921569%,43.921569%);fill-opacity:1;" d="M 34.703125 0.105469 C 32.890625 0.257812 30.964844 1.066406 29.542969 2.277344 C 26.925781 4.507812 25.71875 7.824219 26.332031 11.113281 C 26.464844 11.800781 26.367188 12.46875 26.050781 13.117188 C 25.859375 13.503906 25.695312 13.703125 25.148438 14.21875 C 24.910156 14.441406 24.425781 14.898438 24.074219 15.226562 C 23.71875 15.558594 23.390625 15.867188 23.339844 15.90625 C 23.289062 15.953125 22.691406 16.507812 22.011719 17.140625 C 21.335938 17.777344 20.769531 18.300781 20.757812 18.300781 C 20.746094 18.308594 18.265625 15.882812 15.242188 12.910156 L 9.75 7.511719 L 10.035156 7.21875 C 10.390625 6.84375 10.527344 6.535156 10.53125 6.136719 C 10.53125 5.636719 10.40625 5.445312 9.410156 4.429688 C 8.589844 3.597656 8.453125 3.476562 7.492188 2.808594 C 6.925781 2.410156 6.085938 1.824219 5.621094 1.5 C 5.160156 1.171875 4.761719 0.910156 4.742188 0.910156 C 4.691406 0.910156 1.960938 3.648438 1.960938 3.699219 C 1.960938 3.71875 2.578125 4.554688 3.339844 5.566406 C 4.628906 7.28125 4.777344 7.460938 5.617188 8.289062 C 6.109375 8.78125 6.59375 9.222656 6.6875 9.273438 C 6.820312 9.34375 6.96875 9.371094 7.292969 9.371094 C 7.800781 9.371094 7.929688 9.308594 8.363281 8.894531 L 8.660156 8.613281 L 9.34375 9.320312 C 9.722656 9.710938 11.269531 11.289062 12.78125 12.832031 C 17.996094 18.164062 19.363281 19.574219 19.351562 19.605469 C 19.34375 19.625 18.804688 20.128906 18.15625 20.738281 C 17.507812 21.34375 16.386719 22.386719 15.667969 23.058594 C 13.0625 25.492188 11.445312 27 8.652344 29.601562 C -0.121094 37.769531 0.46875 37.210938 0.300781 37.554688 C 0.00390625 38.160156 0.0507812 38.871094 0.425781 39.425781 C 0.523438 39.5625 1.417969 40.5 2.425781 41.503906 C 4.554688 43.636719 4.613281 43.675781 5.433594 43.65625 C 5.796875 43.644531 6.117188 43.554688 6.398438 43.367188 C 6.496094 43.296875 8.117188 41.578125 10 39.542969 C 11.875 37.507812 14.324219 34.851562 15.441406 33.644531 C 16.554688 32.4375 17.878906 31 18.378906 30.460938 C 19.539062 29.207031 22.96875 25.496094 23.5625 24.847656 L 24.015625 24.355469 L 24.53125 24.867188 C 24.820312 25.152344 25.527344 25.878906 26.113281 26.480469 L 27.167969 27.578125 L 26.933594 27.960938 C 26.542969 28.582031 26.304688 29.269531 26.304688 29.75 C 26.304688 29.851562 26.339844 30.050781 26.378906 30.1875 C 26.449219 30.421875 26.941406 30.925781 34.585938 38.605469 C 39.0625 43.09375 42.792969 46.804688 42.878906 46.84375 C 43.316406 47.066406 43.992188 46.96875 44.785156 46.574219 C 45.96875 45.996094 47.050781 44.898438 47.601562 43.722656 C 47.863281 43.171875 47.929688 42.902344 47.929688 42.429688 C 47.929688 42.164062 47.898438 42.003906 47.828125 41.859375 C 47.761719 41.714844 45.164062 39.074219 39.621094 33.511719 C 32.898438 26.761719 31.472656 25.359375 31.3125 25.308594 C 31.035156 25.21875 30.492188 25.234375 30.144531 25.332031 C 29.871094 25.414062 29.207031 25.734375 28.8125 25.976562 L 28.632812 26.085938 L 27.011719 24.5 C 26.121094 23.625 25.402344 22.894531 25.410156 22.875 C 25.445312 22.78125 29.574219 18.335938 29.796875 18.148438 C 30.574219 17.515625 31.445312 17.347656 32.664062 17.605469 C 34.128906 17.90625 35.425781 17.871094 36.890625 17.492188 C 38.488281 17.074219 39.988281 16.175781 41.214844 14.898438 C 41.988281 14.089844 42.425781 13.449219 42.929688 12.402344 C 43.71875 10.738281 43.992188 9.027344 43.746094 7.199219 C 43.714844 6.976562 43.679688 6.769531 43.660156 6.734375 C 43.640625 6.699219 42.675781 7.308594 41.015625 8.414062 C 39.574219 9.371094 38.375 10.152344 38.347656 10.152344 C 38.320312 10.152344 37.28125 9.132812 36.039062 7.886719 C 33.902344 5.738281 33.785156 5.617188 33.847656 5.507812 C 33.882812 5.441406 34.667969 4.25 35.585938 2.855469 C 36.511719 1.464844 37.265625 0.308594 37.265625 0.292969 C 37.265625 0.238281 36.773438 0.15625 36.160156 0.101562 C 35.523438 0.046875 35.394531 0.046875 34.703125 0.105469 Z M 5.875 37.554688 C 6.503906 37.875 6.808594 38.558594 6.617188 39.214844 C 6.332031 40.210938 5.105469 40.59375 4.332031 39.929688 C 4 39.640625 3.859375 39.351562 3.832031 38.902344 C 3.8125 38.542969 3.824219 38.5 3.976562 38.195312 C 4.351562 37.476562 5.179688 37.199219 5.875 37.554688 Z M 5.875 37.554688 "/>
</g>
</svg>
