<? global $USER;
if ($USER->IsAdmin()) { ?>

<? } else { ?>
    <? if (!empty($arResult["ORDER"])): ?>
        <table class="sale_order_full_table">
            <tr>
                <td>
                    <?=Loc::getMessage("SOA_ORDER_SUC", [
                        "#ORDER_DATE#" => $arResult["ORDER"]["DATE_INSERT"],
                        "#ORDER_ID#"   => $arResult["ORDER"]["ACCOUNT_NUMBER"],
                    ])?>

                    <? if (!empty($arResult['ORDER']["PAYMENT_ID"])): ?>
                        <?=Loc::getMessage("SOA_PAYMENT_SUC", [
                            "#PAYMENT_ID#" => $arResult['PAYMENT'][$arResult['ORDER']["PAYMENT_ID"]]['ACCOUNT_NUMBER'],
                        ])?>
                    <? endif ?>
                    <br/><br/>
                    <?=Loc::getMessage("SOA_ORDER_SUC1", ["#LINK#" => $arParams["PATH_TO_PERSONAL"]])?>
                </td>
            </tr>
        </table>

        <? if ($arResult["ORDER"]["IS_ALLOW_PAY"] === 'Y') {
            if (!empty($arResult["PAYMENT"])) {
                foreach ($arResult["PAYMENT"] as $payment) {
                    if ($payment["PAID"] != 'Y') {
                        if (!empty($arResult['PAY_SYSTEM_LIST'])
                            && array_key_exists($payment["PAY_SYSTEM_ID"], $arResult['PAY_SYSTEM_LIST'])
                        ) {
                            $arPaySystem = $arResult['PAY_SYSTEM_LIST'][$payment["PAY_SYSTEM_ID"]];

                            if (empty($arPaySystem["ERROR"])) {
                                ?>
                                <br/><br/>

                                <table class="sale_order_full_table">
                                    <tr>
                                        <td class="ps_logo">
                                            <div class="pay_name"><?=Loc::getMessage("SOA_PAY")?></div>
                                            <?=CFile::ShowImage($arPaySystem["LOGOTIP"], 100, 100, "border=0\" style=\"width:100px\"", "", false)?>
                                            <div class="paysystem_name"><?=$arPaySystem["NAME"]?></div>
                                            <br/>
                                        </td>
                                    </tr>
                                    <tr>
                                        <td>
                                            <? if (strlen($arPaySystem["ACTION_FILE"]) > 0 && $arPaySystem["NEW_WINDOW"] == "Y" && $arPaySystem["IS_CASH"] != "Y"): ?>
                                                <?
                                                $orderAccountNumber   = urlencode(urlencode($arResult["ORDER"]["ACCOUNT_NUMBER"]));
                                                $paymentAccountNumber = $payment["ACCOUNT_NUMBER"];
                                                ?>
                                                <script>
																								window.open('<?=$arParams["PATH_TO_PAYMENT"]?>?ORDER_ID=<?=$orderAccountNumber?>&PAYMENT_ID=<?=$paymentAccountNumber?>');
                                                </script>
                                            <?=Loc::getMessage("SOA_PAY_LINK",
                                                ["#LINK#" => $arParams["PATH_TO_PAYMENT"] . "?ORDER_ID=" . $orderAccountNumber . "&PAYMENT_ID=" . $paymentAccountNumber])?>
                                            <? if (CSalePdf::isPdfAvailable() && $arPaySystem['IS_AFFORD_PDF']): ?>
                                            <br/>
                                                <?=Loc::getMessage("SOA_PAY_PDF", ["#LINK#" => $arParams["PATH_TO_PAYMENT"] . "?ORDER_ID=" . $orderAccountNumber . "&pdf=1&DOWNLOAD=Y"])?>
                                            <? endif ?>
                                            <? else: ?>
                                                <?=$arPaySystem["BUFFERED_OUTPUT"]?>
                                            <? endif ?>
                                        </td>
                                    </tr>
                                </table>

                                <?
                            } else {
                                ?>
                                <span style="color:red;"><?=Loc::getMessage("SOA_ORDER_PS_ERROR")?></span>
                                <?
                            }
                        } else {
                            ?>
                            <span style="color:red;"><?=Loc::getMessage("SOA_ORDER_PS_ERROR")?></span>
                            <?
                        }
                    }
                }
            }
        } else {
            ?>
            <br/><strong><?=$arParams['MESS_PAY_SYSTEM_PAYABLE_ERROR']?></strong>
            <?
        }
        ?>

    <? else: ?>

        <b><?=Loc::getMessage("SOA_ERROR_ORDER")?></b>
        <br/><br/>

        <table class="sale_order_full_table">
            <tr>
                <td>
                    <?=Loc::getMessage("SOA_ERROR_ORDER_LOST", ["#ORDER_ID#" => $arResult["ACCOUNT_NUMBER"]])?>
                    <?=Loc::getMessage("SOA_ERROR_ORDER_LOST1")?>
                </td>
            </tr>
        </table>

    <? endif ?>
    <div class="content-block">
        <a class="print-link" href="/masters/">Каталог мастеров в помощь по установке оборудования</a><br>
        <a class="service-link" href="/service-centers/">Каталог сервис-центров в помощь по обслуживанию
                                                         оборудования</a><br>
        <a class="lichniy-link" href="/lichniy_cabinet/order/<?=$arResult['ORDER']['ID']?>/?print">Распечатать
                                                                                                   информацию о заказе</a>
    </div>
<? } ?>