[
  {
    "latlng": [44.059654, 43.034953],
    "title": "«Эндимарт» (Пятигорск / Бештау)",
    "text": "Адрес: г. Пятигорск, Бештаугорское шоссе 9/6<br> Телефоны: +7-928-814-65-29, +7-928-814-65-96<br> Режим работы: ежедневно, с 8:00 до 17:00.<br>  Воскресенье — выходной"
  },
  {
    "latlng": [43.020603, 44.681888],
    "title": "«Эндимарт» (Владикавказ)",
    "text": "Адрес: г. Пятигорск, Бештаугорское шоссе 9/6<br> Телефоны: +7-928-814-65-29, +7-928-814-65-96<br> Режим работы: ежедневно, с 8:00 до 17:00.<br>  Воскресенье — выходной"
  },
  {
    "latlng": [45.040216, 38.975996],
    "title": "«Эндимарт» (Краснодар)",
    "text": "Адрес: г. Пятигорск, Бештаугорское шоссе 9/6<br> Телефоны: +7-928-814-65-29, +7-928-814-65-96<br> Режим работы: ежедневно, с 8:00 до 17:00.<br>  Воскресенье — выходной"
  }
]



