[
  {
    "name": "30.11.16 Иван Петров (г. Пятигорск)",
    "rating": 4,
    "text": "Очень понравилось. Вежливые и профессиональные продавцы выдержали все мои дотошные вопросы. Набрал отопления себе на год. Так еще и бесплатно привезли весь товар вечером домой прям до дверей! Вы приобрели еще одного клиента в моем лице! Спасибо, так держать!"
  },
  {
    "name": "30.11.16 Иван Петров (г. Пятигорск)",
    "rating": 5,
    "text": "Очень понравилось. Вежливые и профессиональные продавцы выдержали все мои дотошные вопросы. Набрал отопления себе на год. Так еще и бесплатно привезли весь товар вечером домой прям до дверей! Вы приобрели еще одного клиента в моем лице! Спасибо, так держать!"
  },
  {
    "name": "30.11.16 Иван Петров (г. Пятигорск)",
    "rating": 4,
    "text": "Очень понравилось. Вежливые и профессиональные продавцы выдержали все мои дотошные вопросы. Набрал отопления себе на год. Так еще и бесплатно привезли весь товар вечером домой прям до дверей! Вы приобрели еще одного клиента в моем лице! Спасибо, так держать!"
  },
  {
    "name": "30.11.16 Иван Петров (г. Пятигорск)",
    "rating": 4,
    "text": "Очень понравилось. Вежливые и профессиональные продавцы выдержали все мои дотошные вопросы. Набрал отопления себе на год. Так еще и бесплатно привезли весь товар вечером домой прям до дверей! Вы приобрели еще одного клиента в моем лице! Спасибо, так держать!"
  }
]
